{
	"info": {
		"_postman_id": "c0765bbc-cb4d-4cf1-855e-e42a7f95d7f2",
		"name": "Sagara",
		"schema": "https://schema.getpostman.com/json/collection/v2.1.0/collection.json"
	},
	"item": [
		{
			"name": "Auth",
			"item": [
				{
					"name": "Login",
					"event": [
						{
							"listen": "test",
							"script": {
								"exec": [
									"pm.test(\"Status code is 200\", function () {",
									"    pm.response.to.have.status(200);",
									"    var jsonData = JSON.parse(responseBody);",
									"    pm.environment.set(\"ACCESS_TOKEN\", jsonData.data.access_token);",
									"});"
								],
								"type": "text/javascript"
							}
						}
					],
					"request": {
						"method": "POST",
						"header": [],
						"body": {
							"mode": "raw",
							"raw": "{\n    \"email\": \"me@tukangremot.com\",\n    \"password\": \"rahasia123\"\n}",
							"options": {
								"raw": {
									"language": "json"
								}
							}
						},
						"url": {
							"raw": "{{URL}}/v1/auth/login",
							"host": [
								"{{URL}}"
							],
							"path": [
								"v1",
								"auth",
								"login"
							]
						}
					},
					"response": [
						{
							"name": "Success",
							"originalRequest": {
								"method": "POST",
								"header": [],
								"body": {
									"mode": "raw",
									"raw": "{\n    \"email\": \"me@tukangremot.com\",\n    \"password\": \"rahasia123\"\n}",
									"options": {
										"raw": {
											"language": "json"
										}
									}
								},
								"url": {
									"raw": "{{URL}}/v1/auth/login",
									"host": [
										"{{URL}}"
									],
									"path": [
										"v1",
										"auth",
										"login"
									]
								}
							},
							"status": "OK",
							"code": 200,
							"_postman_previewlanguage": "json",
							"header": [
								{
									"key": "Content-Type",
									"value": "application/json; charset=utf-8"
								},
								{
									"key": "Content-Type",
									"value": "application/json; charset=utf-8"
								},
								{
									"key": "Date",
									"value": "Thu, 02 Sep 2021 15:16:52 GMT"
								},
								{
									"key": "Content-Length",
									"value": "285"
								}
							],
							"cookie": [],
							"body": "{\n    \"success\": true,\n    \"data\": {\n        \"id\": \"f45b311c-82a5-4f9e-843c-ba72b6dc7d3c\",\n        \"access_token\": \"eyJhbGciOiJIUzI1NiIsInR5cCI6IkpXVCJ9.eyJpZGVudGlmaWVyIjoiZjQ1YjMxMWMtODJhNS00ZjllLTg0M2MtYmE3MmI2ZGM3ZDNjIiwiZXhwIjoxNjMwNTk1OTMyLCJpYXQiOjE2MzA1OTU4MTJ9.nv9naEJ57pJSd92BXt2QffgUche6tFSz7cwhIQSeq90\"\n    }\n}"
						}
					]
				},
				{
					"name": "Register",
					"request": {
						"method": "POST",
						"header": [],
						"body": {
							"mode": "raw",
							"raw": "{\n    \"name\": \"Irvan Maulana\",\n    \"email\": \"irvanmaul2903@gmail.com\",\n    \"password\": \"rahasia123\"\n}",
							"options": {
								"raw": {
									"language": "json"
								}
							}
						},
						"url": {
							"raw": "http://localhost:8080/v1/auth/register",
							"protocol": "http",
							"host": [
								"localhost"
							],
							"port": "8080",
							"path": [
								"v1",
								"auth",
								"register"
							]
						}
					},
					"response": [
						{
							"name": "Success",
							"originalRequest": {
								"method": "POST",
								"header": [],
								"body": {
									"mode": "raw",
									"raw": "{\n    \"name\": \"Irvan Maulana\",\n    \"email\": \"irvanmaul2903@gmail.com\",\n    \"password\": \"rahasia123\"\n}",
									"options": {
										"raw": {
											"language": "json"
										}
									}
								},
								"url": {
									"raw": "http://localhost:8080/v1/auth/register",
									"protocol": "http",
									"host": [
										"localhost"
									],
									"port": "8080",
									"path": [
										"v1",
										"auth",
										"register"
									]
								}
							},
							"status": "Created",
							"code": 201,
							"_postman_previewlanguage": "json",
							"header": [
								{
									"key": "Content-Type",
									"value": "application/json; charset=utf-8"
								},
								{
									"key": "Content-Type",
									"value": "application/json; charset=utf-8"
								},
								{
									"key": "Date",
									"value": "Thu, 02 Sep 2021 15:26:09 GMT"
								},
								{
									"key": "Content-Length",
									"value": "70"
								}
							],
							"cookie": [],
							"body": "{\n    \"success\": true,\n    \"data\": {\n        \"id\": \"beaf9f32-ebf2-4a1c-9790-cb7d1cd076df\"\n    }\n}"
						}
					]
				}
			]
		},
		{
			"name": "Product",
			"item": [
				{
					"name": "List",
					"protocolProfileBehavior": {
						"disableBodyPruning": true
					},
					"request": {
						"method": "GET",
						"header": [
							{
								"key": "Authorization",
								"value": "Bearer {{ACCESS_TOKEN}}",
								"type": "text"
							}
						],
						"body": {
							"mode": "raw",
							"raw": ""
						},
						"url": {
							"raw": "http://localhost:8080/v1/products",
							"protocol": "http",
							"host": [
								"localhost"
							],
							"port": "8080",
							"path": [
								"v1",
								"products"
							]
						}
					},
					"response": [
						{
							"name": "Success",
							"originalRequest": {
								"method": "GET",
								"header": [
									{
										"key": "Authorization",
										"value": "Bearer {{ACCESS_TOKEN}}",
										"type": "text"
									}
								],
								"body": {
									"mode": "raw",
									"raw": ""
								},
								"url": {
									"raw": "http://localhost:8080/v1/products",
									"protocol": "http",
									"host": [
										"localhost"
									],
									"port": "8080",
									"path": [
										"v1",
										"products"
									]
								}
							},
							"status": "OK",
							"code": 200,
							"_postman_previewlanguage": "json",
							"header": [
								{
									"key": "Content-Type",
									"value": "application/json; charset=utf-8"
								},
								{
									"key": "Content-Type",
									"value": "application/json; charset=utf-8"
								},
								{
									"key": "Date",
									"value": "Thu, 02 Sep 2021 15:16:54 GMT"
								},
								{
									"key": "Content-Length",
									"value": "718"
								}
							],
							"cookie": [],
							"body": "{\n    \"success\": true,\n    \"data\": [\n        {\n            \"id\": \"d44ff379-ef1d-4bd7-9d46-15924a4eb2ed\",\n            \"name\": \"Celana SpongeBob\",\n            \"type\": \"Celana Anak\",\n            \"weight\": 200,\n            \"price\": 200000,\n            \"created_by\": \"f45b311c-82a5-4f9e-843c-ba72b6dc7d3c\"\n        },\n        {\n            \"id\": \"dba7a002-6f54-41ae-b168-c4c803f144b7\",\n            \"name\": \"Celana SpongeBob\",\n            \"type\": \"Celana Anak\",\n            \"weight\": 200,\n            \"price\": 200000,\n            \"created_by\": \"f45b311c-82a5-4f9e-843c-ba72b6dc7d3c\"\n        },\n        {\n            \"id\": \"72eb3152-41a1-4a60-b268-5139d126b326\",\n            \"name\": \"Celana SpongeBob\",\n            \"type\": \"Celana Anak\",\n            \"weight\": 200,\n            \"price\": 200000,\n            \"created_by\": \"f45b311c-82a5-4f9e-843c-ba72b6dc7d3c\"\n        },\n        {\n            \"id\": \"d66ff91f-2fa0-427a-a537-0a542b57c984\",\n            \"name\": \"Celana SpongeBob\",\n            \"type\": \"Celana Anak\",\n            \"weight\": 200,\n            \"price\": 200000,\n            \"created_by\": \"f45b311c-82a5-4f9e-843c-ba72b6dc7d3c\"\n        }\n    ]\n}"
						}
					]
				},
				{
					"name": "Create",
					"request": {
						"method": "POST",
						"header": [
							{
								"key": "Authorization",
								"value": "Bearer {{ACCESS_TOKEN}}",
								"type": "text"
							}
						],
						"body": {
							"mode": "raw",
							"raw": "{\n    \"name\": \"Celana SpongeBob\",\n    \"type\": \"Celana Anak\",\n    \"weight\": 200,\n    \"price\": 200000,\n    \"created_by\": \"f45b311c-82a5-4f9e-843c-ba72b6dc7d3c\"\n}",
							"options": {
								"raw": {
									"language": "json"
								}
							}
						},
						"url": {
							"raw": "http://localhost:8080/v1/products",
							"protocol": "http",
							"host": [
								"localhost"
							],
							"port": "8080",
							"path": [
								"v1",
								"products"
							]
						}
					},
					"response": [
						{
							"name": "Success",
							"originalRequest": {
								"method": "POST",
								"header": [
									{
										"key": "Authorization",
										"value": "Bearer {{ACCESS_TOKEN}}",
										"type": "text"
									}
								],
								"body": {
									"mode": "raw",
									"raw": "{\n    \"name\": \"Celana SpongeBob\",\n    \"type\": \"Celana Anak\",\n    \"weight\": 200,\n    \"price\": 200000,\n    \"created_by\": \"f45b311c-82a5-4f9e-843c-ba72b6dc7d3c\"\n}",
									"options": {
										"raw": {
											"language": "json"
										}
									}
								},
								"url": {
									"raw": "http://localhost:8080/v1/products",
									"protocol": "http",
									"host": [
										"localhost"
									],
									"port": "8080",
									"path": [
										"v1",
										"products"
									]
								}
							},
							"status": "Created",
							"code": 201,
							"_postman_previewlanguage": "json",
							"header": [
								{
									"key": "Content-Type",
									"value": "application/json; charset=utf-8"
								},
								{
									"key": "Content-Type",
									"value": "application/json; charset=utf-8"
								},
								{
									"key": "Date",
									"value": "Thu, 02 Sep 2021 15:26:34 GMT"
								},
								{
									"key": "Content-Length",
									"value": "70"
								}
							],
							"cookie": [],
							"body": "{\n    \"success\": true,\n    \"data\": {\n        \"id\": \"5b7d4c6c-0a7f-4ac5-bd4a-c36149ddea83\"\n    }\n}"
						}
					]
				},
				{
					"name": "Update",
					"request": {
						"method": "PUT",
						"header": [
							{
								"key": "Authorization",
								"value": "Bearer {{ACCESS_TOKEN}}",
								"type": "text"
							}
						],
						"body": {
							"mode": "raw",
							"raw": "{\n    \"name\": \"Celana Patrick\",\n    \"type\": \"Celana Anak\",\n    \"weight\": 200,\n    \"price\": 200000,\n    \"updated_by\": \"f45b311c-82a5-4f9e-843c-ba72b6dc7d3c\"\n}",
							"options": {
								"raw": {
									"language": "json"
								}
							}
						},
						"url": {
							"raw": "http://localhost:8080/v1/products/66e525bb-34cc-4263-a4be-793c88adab5d",
							"protocol": "http",
							"host": [
								"localhost"
							],
							"port": "8080",
							"path": [
								"v1",
								"products",
								"66e525bb-34cc-4263-a4be-793c88adab5d"
							]
						}
					},
					"response": [
						{
							"name": "Success",
							"originalRequest": {
								"method": "PUT",
								"header": [
									{
										"key": "Authorization",
										"value": "Bearer {{ACCESS_TOKEN}}",
										"type": "text"
									}
								],
								"body": {
									"mode": "raw",
									"raw": "{\n    \"name\": \"Celana Patrick\",\n    \"type\": \"Celana Anak\",\n    \"weight\": 200,\n    \"price\": 200000,\n    \"updated_by\": \"f45b311c-82a5-4f9e-843c-ba72b6dc7d3c\"\n}",
									"options": {
										"raw": {
											"language": "json"
										}
									}
								},
								"url": {
									"raw": "http://localhost:8080/v1/products/66e525bb-34cc-4263-a4be-793c88adab5d",
									"protocol": "http",
									"host": [
										"localhost"
									],
									"port": "8080",
									"path": [
										"v1",
										"products",
										"66e525bb-34cc-4263-a4be-793c88adab5d"
									]
								}
							},
							"status": "OK",
							"code": 200,
							"_postman_previewlanguage": "json",
							"header": [
								{
									"key": "Content-Type",
									"value": "application/json; charset=utf-8"
								},
								{
									"key": "Content-Type",
									"value": "application/json; charset=utf-8"
								},
								{
									"key": "Date",
									"value": "Thu, 02 Sep 2021 15:26:39 GMT"
								},
								{
									"key": "Content-Length",
									"value": "70"
								}
							],
							"cookie": [],
							"body": "{\n    \"success\": true,\n    \"data\": {\n        \"id\": \"66e525bb-34cc-4263-a4be-793c88adab5d\"\n    }\n}"
						}
					]
				},
				{
					"name": "Delete",
					"request": {
						"method": "DELETE",
						"header": [
							{
								"key": "Authorization",
								"value": "Bearer {{ACCESS_TOKEN}}",
								"type": "text"
							}
						],
						"url": {
							"raw": "http://localhost:8080/v1/products/66e525bb-34cc-4263-a4be-793c88adab5d",
							"protocol": "http",
							"host": [
								"localhost"
							],
							"port": "8080",
							"path": [
								"v1",
								"products",
								"66e525bb-34cc-4263-a4be-793c88adab5d"
							]
						}
					},
					"response": [
						{
							"name": "Success",
							"originalRequest": {
								"method": "DELETE",
								"header": [
									{
										"key": "Authorization",
										"value": "Bearer {{ACCESS_TOKEN}}",
										"type": "text"
									}
								],
								"url": {
									"raw": "http://localhost:8080/v1/products/66e525bb-34cc-4263-a4be-793c88adab5d",
									"protocol": "http",
									"host": [
										"localhost"
									],
									"port": "8080",
									"path": [
										"v1",
										"products",
										"66e525bb-34cc-4263-a4be-793c88adab5d"
									]
								}
							},
							"status": "OK",
							"code": 200,
							"_postman_previewlanguage": "json",
							"header": [
								{
									"key": "Content-Type",
									"value": "application/json; charset=utf-8"
								},
								{
									"key": "Content-Type",
									"value": "application/json; charset=utf-8"
								},
								{
									"key": "Date",
									"value": "Thu, 02 Sep 2021 15:26:50 GMT"
								},
								{
									"key": "Content-Length",
									"value": "70"
								}
							],
							"cookie": [],
							"body": "{\n    \"success\": true,\n    \"data\": {\n        \"id\": \"66e525bb-34cc-4263-a4be-793c88adab5d\"\n    }\n}"
						}
					]
				},
				{
					"name": "View",
					"request": {
						"method": "GET",
						"header": [
							{
								"key": "Authorization",
								"value": "Bearer {{ACCESS_TOKEN}}",
								"type": "text"
							}
						],
						"url": {
							"raw": "http://localhost:8080/v1/products/d44ff379-ef1d-4bd7-9d46-15924a4eb2ed",
							"protocol": "http",
							"host": [
								"localhost"
							],
							"port": "8080",
							"path": [
								"v1",
								"products",
								"d44ff379-ef1d-4bd7-9d46-15924a4eb2ed"
							]
						}
					},
					"response": [
						{
							"name": "Success",
							"originalRequest": {
								"method": "GET",
								"header": [
									{
										"key": "Authorization",
										"value": "Bearer {{ACCESS_TOKEN}}",
										"type": "text"
									}
								],
								"url": {
									"raw": "http://localhost:8080/v1/products/d44ff379-ef1d-4bd7-9d46-15924a4eb2ed",
									"protocol": "http",
									"host": [
										"localhost"
									],
									"port": "8080",
									"path": [
										"v1",
										"products",
										"d44ff379-ef1d-4bd7-9d46-15924a4eb2ed"
									]
								}
							},
							"status": "OK",
							"code": 200,
							"_postman_previewlanguage": "json",
							"header": [
								{
									"key": "Content-Type",
									"value": "application/json; charset=utf-8"
								},
								{
									"key": "Content-Type",
									"value": "application/json; charset=utf-8"
								},
								{
									"key": "Date",
									"value": "Thu, 02 Sep 2021 15:26:45 GMT"
								},
								{
									"key": "Content-Length",
									"value": "213"
								}
							],
							"cookie": [],
							"body": "{\n    \"success\": true,\n    \"data\": {\n        \"id\": \"d44ff379-ef1d-4bd7-9d46-15924a4eb2ed\",\n        \"name\": \"Celana SpongeBob\",\n        \"type\": \"Celana Anak\",\n        \"weight\": 200,\n        \"price\": 200000,\n        \"created_by\": \"f45b311c-82a5-4f9e-843c-ba72b6dc7d3c\",\n        \"updated_by\": \"\"\n    }\n}"
						}
					]
				}
			]
		}
	]
}